<?xml version="1.0" encoding="UTF-8" standalone="no"?>
<!-- Created with Inkscape (http://www.inkscape.org/) -->

<svg
   xmlns:dc="http://purl.org/dc/elements/1.1/"
   xmlns:cc="http://creativecommons.org/ns#"
   xmlns:rdf="http://www.w3.org/1999/02/22-rdf-syntax-ns#"
   xmlns:svg="http://www.w3.org/2000/svg"
   xmlns="http://www.w3.org/2000/svg"
   xmlns:sodipodi="http://sodipodi.sourceforge.net/DTD/sodipodi-0.dtd"
   xmlns:inkscape="http://www.inkscape.org/namespaces/inkscape"
   width="170.15541mm"
   height="86.908417mm"
   viewBox="0 0 170.15541 86.90842"
   version="1.1"
   id="svg8"
   inkscape:version="0.92.5 (2060ec1f9f, 2020-04-08)"
   sodipodi:docname="snapshots_file.svg"
   inkscape:export-filename="/home/dennis/repos/sustainable-simulation-software/course-material/git_basics/img/snapshots.png"
   inkscape:export-xdpi="300.78949"
   inkscape:export-ydpi="300.78949">
  <defs
     id="defs2">
    <marker
       inkscape:stockid="Arrow2Lend"
       orient="auto"
       refY="0"
       refX="0"
       id="Arrow2Lend"
       style="overflow:visible"
       inkscape:isstock="true">
      <path
         id="path970"
         style="fill:#000000;fill-opacity:1;fill-rule:evenodd;stroke:#000000;stroke-width:0.625;stroke-linejoin:round;stroke-opacity:1"
         d="M 8.7185878,4.0337352 -2.2072895,0.01601326 8.7185884,-4.0017078 c -1.7454984,2.3720609 -1.7354408,5.6174519 -6e-7,8.035443 z"
         transform="matrix(-1.1,0,0,-1.1,-1.1,0)"
         inkscape:connector-curvature="0" />
    </marker>
    <inkscape:path-effect
       effect="spiro"
       id="path-effect929"
       is_visible="true" />
    <inkscape:path-effect
       effect="spiro"
       id="path-effect821"
       is_visible="true" />
    <inkscape:path-effect
       effect="spiro"
       id="path-effect821-2"
       is_visible="true" />
    <inkscape:path-effect
       effect="spiro"
       id="path-effect821-2-9"
       is_visible="true" />
    <marker
       inkscape:stockid="Arrow2Lend"
       orient="auto"
       refY="0"
       refX="0"
       id="Arrow2Lend-4"
       style="overflow:visible"
       inkscape:isstock="true">
      <path
         inkscape:connector-curvature="0"
         id="path970-3"
         style="fill:#000000;fill-opacity:1;fill-rule:evenodd;stroke:#000000;stroke-width:0.625;stroke-linejoin:round;stroke-opacity:1"
         d="M 8.7185878,4.0337352 -2.2072895,0.01601326 8.7185884,-4.0017078 c -1.7454984,2.3720609 -1.7354408,5.6174519 -6e-7,8.035443 z"
         transform="matrix(-1.1,0,0,-1.1,-1.1,0)" />
    </marker>
    <inkscape:path-effect
       effect="spiro"
       id="path-effect929-9"
       is_visible="true" />
    <marker
       inkscape:stockid="Arrow2Lend"
       orient="auto"
       refY="0"
       refX="0"
       id="Arrow2Lend-7"
       style="overflow:visible"
       inkscape:isstock="true">
      <path
         inkscape:connector-curvature="0"
         id="path970-6"
         style="fill:#000000;fill-opacity:1;fill-rule:evenodd;stroke:#000000;stroke-width:0.625;stroke-linejoin:round;stroke-opacity:1"
         d="M 8.7185878,4.0337352 -2.2072895,0.01601326 8.7185884,-4.0017078 c -1.7454984,2.3720609 -1.7354408,5.6174519 -6e-7,8.035443 z"
         transform="matrix(-1.1,0,0,-1.1,-1.1,0)" />
    </marker>
    <inkscape:path-effect
       effect="spiro"
       id="path-effect929-5"
       is_visible="true" />
    <filter
       style="color-interpolation-filters:sRGB"
       inkscape:label="Drop Shadow"
       id="filter1525">
      <feFlood
         flood-opacity="0.498039"
         flood-color="rgb(0,0,0)"
         result="flood"
         id="feFlood1515" />
      <feComposite
         in="flood"
         in2="SourceGraphic"
         operator="in"
         result="composite1"
         id="feComposite1517" />
      <feGaussianBlur
         in="composite1"
         stdDeviation="0"
         result="blur"
         id="feGaussianBlur1519" />
      <feOffset
         dx="1"
         dy="1"
         result="offset"
         id="feOffset1521" />
      <feComposite
         in="SourceGraphic"
         in2="offset"
         operator="over"
         result="composite2"
         id="feComposite1523" />
    </filter>
    <filter
       style="color-interpolation-filters:sRGB"
       inkscape:label="Drop Shadow"
       id="filter1671">
      <feFlood
         flood-opacity="0.498039"
         flood-color="rgb(0,0,0)"
         result="flood"
         id="feFlood1661" />
      <feComposite
         in="flood"
         in2="SourceGraphic"
         operator="in"
         result="composite1"
         id="feComposite1663" />
      <feGaussianBlur
         in="composite1"
         stdDeviation="1"
         result="blur"
         id="feGaussianBlur1665" />
      <feOffset
         dx="1"
         dy="1"
         result="offset"
         id="feOffset1667" />
      <feComposite
         in="SourceGraphic"
         in2="offset"
         operator="over"
         result="composite2"
         id="feComposite1669" />
    </filter>
    <filter
       style="color-interpolation-filters:sRGB"
       inkscape:label="Drop Shadow"
       id="filter1671-4">
      <feFlood
         flood-opacity="0.498039"
         flood-color="rgb(0,0,0)"
         result="flood"
         id="feFlood1661-9" />
      <feComposite
         in="flood"
         in2="SourceGraphic"
         operator="in"
         result="composite1"
         id="feComposite1663-2" />
      <feGaussianBlur
         in="composite1"
         stdDeviation="1"
         result="blur"
         id="feGaussianBlur1665-7" />
      <feOffset
         dx="1"
         dy="1"
         result="offset"
         id="feOffset1667-4" />
      <feComposite
         in="SourceGraphic"
         in2="offset"
         operator="over"
         result="composite2"
         id="feComposite1669-2" />
    </filter>
    <filter
       style="color-interpolation-filters:sRGB"
       inkscape:label="Drop Shadow"
       id="filter1671-4-4">
      <feFlood
         flood-opacity="0.498039"
         flood-color="rgb(0,0,0)"
         result="flood"
         id="feFlood1661-9-4" />
      <feComposite
         in="flood"
         in2="SourceGraphic"
         operator="in"
         result="composite1"
         id="feComposite1663-2-3" />
      <feGaussianBlur
         in="composite1"
         stdDeviation="1"
         result="blur"
         id="feGaussianBlur1665-7-8" />
      <feOffset
         dx="1"
         dy="1"
         result="offset"
         id="feOffset1667-4-6" />
      <feComposite
         in="SourceGraphic"
         in2="offset"
         operator="over"
         result="composite2"
         id="feComposite1669-2-0" />
    </filter>
    <filter
       style="color-interpolation-filters:sRGB"
       inkscape:label="Drop Shadow"
       id="filter1671-1">
      <feFlood
         flood-opacity="0.498039"
         flood-color="rgb(0,0,0)"
         result="flood"
         id="feFlood1661-7" />
      <feComposite
         in="flood"
         in2="SourceGraphic"
         operator="in"
         result="composite1"
         id="feComposite1663-5" />
      <feGaussianBlur
         in="composite1"
         stdDeviation="1"
         result="blur"
         id="feGaussianBlur1665-71" />
      <feOffset
         dx="1"
         dy="1"
         result="offset"
         id="feOffset1667-6" />
      <feComposite
         in="SourceGraphic"
         in2="offset"
         operator="over"
         result="composite2"
         id="feComposite1669-9" />
    </filter>
    <filter
       style="color-interpolation-filters:sRGB"
       inkscape:label="Drop Shadow"
       id="filter1671-7">
      <feFlood
         flood-opacity="0.498039"
         flood-color="rgb(0,0,0)"
         result="flood"
         id="feFlood1661-0" />
      <feComposite
         in="flood"
         in2="SourceGraphic"
         operator="in"
         result="composite1"
         id="feComposite1663-4" />
      <feGaussianBlur
         in="composite1"
         stdDeviation="1"
         result="blur"
         id="feGaussianBlur1665-8" />
      <feOffset
         dx="1"
         dy="1"
         result="offset"
         id="feOffset1667-48" />
      <feComposite
         in="SourceGraphic"
         in2="offset"
         operator="over"
         result="composite2"
         id="feComposite1669-1" />
    </filter>
  </defs>
  <sodipodi:namedview
     id="base"
     pagecolor="#ffffff"
     bordercolor="#666666"
     borderopacity="1.0"
     inkscape:pageopacity="0.0"
     inkscape:pageshadow="2"
     inkscape:zoom="2.8"
     inkscape:cx="233.45778"
     inkscape:cy="190.59855"
     inkscape:document-units="mm"
     inkscape:current-layer="layer1"
     showgrid="false"
     inkscape:window-width="3840"
     inkscape:window-height="2032"
     inkscape:window-x="0"
     inkscape:window-y="2214"
     inkscape:window-maximized="1"
     fit-margin-top="0"
     fit-margin-left="0"
     fit-margin-right="0"
     fit-margin-bottom="0">
    <inkscape:grid
       type="xygrid"
       id="grid817"
       originx="41.386138"
       originy="-95.954091" />
  </sodipodi:namedview>
  <metadata
     id="metadata5">
    <rdf:RDF>
      <cc:Work
         rdf:about="">
        <dc:format>image/svg+xml</dc:format>
        <dc:type
           rdf:resource="http://purl.org/dc/dcmitype/StillImage" />
        <dc:title></dc:title>
      </cc:Work>
    </rdf:RDF>
  </metadata>
  <g
     inkscape:label="Layer 1"
     inkscape:groupmode="layer"
     id="layer1"
     transform="translate(41.386138,-114.13751)">
    <circle
       style="opacity:1;fill:#89bbbb;fill-opacity:0.62408758;fill-rule:evenodd;stroke:#000000;stroke-width:0.40000001;stroke-linecap:round;stroke-linejoin:round;stroke-miterlimit:4;stroke-dasharray:none;stroke-dashoffset:0;stroke-opacity:1"
       id="path815"
       cx="16.69191"
       cy="128.99474"
       r="5.5" />
    <path
       style="fill:none;stroke:#000000;stroke-width:0.46892411;stroke-linecap:butt;stroke-linejoin:miter;stroke-miterlimit:4;stroke-dasharray:none;stroke-opacity:1"
       d="m 22.489583,128.98958 h 15.875"
       id="path819"
       inkscape:connector-curvature="0"
       inkscape:path-effect="#path-effect821"
       inkscape:original-d="m 22.489583,128.98958 c 5.291931,-2.6e-4 10.583598,-2.6e-4 15.875,0"
       transform="matrix(0.98333331,0,0,1,0.11024386,0)" />
    <circle
       style="opacity:1;fill:#89bbbb;fill-opacity:0.62408758;fill-rule:evenodd;stroke:#000000;stroke-width:0.40000001;stroke-linecap:round;stroke-linejoin:round;stroke-miterlimit:4;stroke-dasharray:none;stroke-dashoffset:0;stroke-opacity:1"
       id="path815-7"
       cx="43.512543"
       cy="128.99474"
       r="5.5" />
    <path
       style="fill:none;stroke:#000000;stroke-width:0.46892411;stroke-linecap:butt;stroke-linejoin:miter;stroke-miterlimit:4;stroke-dasharray:none;stroke-opacity:1"
       d="m 22.489583,128.98958 h 15.875"
       id="path819-1"
       inkscape:connector-curvature="0"
       inkscape:path-effect="#path-effect821-2"
       inkscape:original-d="m 22.489583,128.98958 c 5.291931,-2.6e-4 10.583598,-2.6e-4 15.875,0"
       transform="matrix(0.9833333,0,0,1,27.097745,3.3333335e-6)" />
    <circle
       style="opacity:1;fill:#89bbbb;fill-opacity:0.62408758;fill-rule:evenodd;stroke:#000000;stroke-width:0.40000001;stroke-linecap:round;stroke-linejoin:round;stroke-miterlimit:4;stroke-dasharray:none;stroke-dashoffset:0;stroke-opacity:1"
       id="path815-7-7"
       cx="70.500046"
       cy="128.99474"
       r="5.5" />
    <text
       xml:space="preserve"
       style="font-style:normal;font-weight:normal;font-size:10.58333302px;line-height:1.25;font-family:sans-serif;letter-spacing:0px;word-spacing:0px;fill:#000000;fill-opacity:1;stroke:none;stroke-width:0.26458332"
       x="11.938411"
       y="120.78967"
       id="text871"><tspan
         sodipodi:role="line"
         id="tspan869"
         x="11.938411"
         y="120.78967"
         style="font-style:normal;font-variant:normal;font-weight:normal;font-stretch:normal;font-size:9.17222214px;font-family:Lato;-inkscape-font-specification:Lato;stroke-width:0.26458332">v1</tspan></text>
    <text
       xml:space="preserve"
       style="font-style:normal;font-weight:normal;font-size:10.58333302px;line-height:1.25;font-family:sans-serif;letter-spacing:0px;word-spacing:0px;fill:#000000;fill-opacity:1;stroke:none;stroke-width:0.26458332"
       x="38.759045"
       y="120.81947"
       id="text871-7"><tspan
         sodipodi:role="line"
         id="tspan869-0"
         x="38.759045"
         y="120.81947"
         style="font-style:normal;font-variant:normal;font-weight:normal;font-stretch:normal;font-size:9.17222214px;font-family:Lato;-inkscape-font-specification:Lato;fill:#00b9ff;fill-opacity:1;stroke-width:0.26458332">v2</tspan></text>
    <text
       xml:space="preserve"
       style="font-style:normal;font-weight:normal;font-size:10.58333302px;line-height:1.25;font-family:sans-serif;letter-spacing:0px;word-spacing:0px;fill:#000000;fill-opacity:1;stroke:none;stroke-width:0.26458332"
       x="65.673172"
       y="120.78278"
       id="text871-7-9"><tspan
         sodipodi:role="line"
         id="tspan869-0-4"
         x="65.673172"
         y="120.78278"
         style="font-style:normal;font-variant:normal;font-weight:normal;font-stretch:normal;font-size:9.17222214px;font-family:Lato;-inkscape-font-specification:Lato;fill:#8e0091;fill-opacity:1;stroke-width:0.26458332">v3</tspan></text>
    <path
       style="fill:none;stroke:#000000;stroke-width:0.26499999;stroke-linecap:butt;stroke-linejoin:miter;stroke-miterlimit:4;stroke-dasharray:none;stroke-opacity:1;marker-end:url(#Arrow2Lend)"
       d="m 12.503815,133.6553 -33.072917,16.34747"
       id="path927"
       inkscape:connector-curvature="0"
       inkscape:path-effect="#path-effect929"
       inkscape:original-d="m 12.503815,133.6553 c -6.3938328,6.04736 -26.678555,10.29959 -33.072917,16.34747"
       sodipodi:nodetypes="cc" />
    <path
       transform="matrix(-1,0,0,1,87.616482,0)"
       style="fill:none;stroke:#000000;stroke-width:0.26499999;stroke-linecap:butt;stroke-linejoin:miter;stroke-miterlimit:4;stroke-dasharray:none;stroke-opacity:1;marker-end:url(#Arrow2Lend-4)"
       d="m 12.503815,133.6553 -33.072917,16.34747"
       id="path927-7"
       inkscape:connector-curvature="0"
       inkscape:path-effect="#path-effect929-9"
       inkscape:original-d="m 12.503815,133.6553 c -6.3938328,6.04736 -26.678555,10.29959 -33.072917,16.34747"
       sodipodi:nodetypes="cc" />
    <path
       transform="translate(32.489858,4.2332663)"
       style="fill:none;stroke:#000000;stroke-width:0.26499999;stroke-linecap:butt;stroke-linejoin:miter;stroke-miterlimit:4;stroke-dasharray:none;stroke-opacity:1;marker-end:url(#Arrow2Lend-7)"
       d="m 11.166392,131.37091 v 13.22917"
       id="path927-71"
       inkscape:connector-curvature="0"
       inkscape:path-effect="#path-effect929-5"
       inkscape:original-d="m 11.166392,131.37091 c -6.3938331,6.04736 6.394362,7.18129 0,13.22917"
       sodipodi:nodetypes="cc" />
    <rect
       style="opacity:1;fill:#ffffff;fill-opacity:1;fill-rule:evenodd;stroke:none;stroke-width:0.17879175;stroke-linecap:round;stroke-linejoin:round;stroke-miterlimit:4;stroke-dasharray:none;stroke-dashoffset:0;stroke-opacity:1;filter:url(#filter1671)"
       id="rect1527"
       width="33.923363"
       height="20.221727"
       x="-36.538593"
       y="157.5623"
       transform="matrix(1,0,0,2.1968317,-1.4552083,-193.95804)" />
    <text
       xml:space="preserve"
       style="font-style:normal;font-weight:normal;font-size:10.58333302px;line-height:1.25;font-family:sans-serif;letter-spacing:0px;word-spacing:0px;fill:#000000;fill-opacity:1;stroke:none;stroke-width:0.26458332"
       x="-35.433464"
       y="160.02361"
       id="text871-9"><tspan
         sodipodi:role="line"
         id="tspan869-2"
         x="-35.433464"
         y="160.02361"
         style="font-style:normal;font-variant:normal;font-weight:normal;font-stretch:normal;font-size:6.35000038px;font-family:Lato;-inkscape-font-specification:Lato;stroke-width:0.26458332">Title</tspan></text>
    <rect
       style="opacity:1;fill:#ffffff;fill-opacity:1;fill-rule:evenodd;stroke:none;stroke-width:0.17879175;stroke-linecap:round;stroke-linejoin:round;stroke-miterlimit:4;stroke-dasharray:none;stroke-dashoffset:0;stroke-opacity:1;filter:url(#filter1671-1)"
       id="rect1527-1"
       width="33.923363"
       height="20.221727"
       x="-36.538593"
       y="157.5623"
       transform="matrix(1,0,0,2.1968317,127.99217,-193.95804)" />
    <text
       xml:space="preserve"
       style="font-style:normal;font-weight:normal;font-size:10.58333302px;line-height:1.25;font-family:sans-serif;letter-spacing:0px;word-spacing:0px;fill:#000000;fill-opacity:1;stroke:none;stroke-width:0.26458332"
       x="94.013916"
       y="160.02361"
       id="text871-9-3"><tspan
         sodipodi:role="line"
         id="tspan869-2-33"
         x="94.013916"
         y="160.02361"
         style="font-style:normal;font-variant:normal;font-weight:normal;font-stretch:normal;font-size:6.35000038px;font-family:Lato;-inkscape-font-specification:Lato;stroke-width:0.26458332">Title</tspan></text>
    <text
       xml:space="preserve"
       style="font-style:normal;font-weight:normal;font-size:10.58333302px;line-height:1.25;font-family:sans-serif;letter-spacing:0px;word-spacing:0px;fill:#00b9ff;fill-opacity:1;stroke:none;stroke-width:0.26458332"
       x="94.013916"
       y="167.78255"
       id="text871-9-8-7"><tspan
         sodipodi:role="line"
         id="tspan869-2-3-9"
         x="94.013916"
         y="167.78255"
         style="font-style:normal;font-variant:normal;font-weight:normal;font-stretch:normal;font-size:6.35000038px;font-family:Lato;-inkscape-font-specification:Lato;fill:#00b9ff;fill-opacity:1;stroke-width:0.26458332">Some text</tspan></text>
    <text
       xml:space="preserve"
       style="font-style:normal;font-weight:normal;font-size:10.58333302px;line-height:1.25;font-family:sans-serif;letter-spacing:0px;word-spacing:0px;fill:#8e0091;fill-opacity:1;stroke:none;stroke-width:0.26458332"
       x="94.013916"
       y="175.61769"
       id="text871-9-8-4-8"><tspan
         sodipodi:role="line"
         id="tspan869-2-3-2-6"
         x="94.013916"
         y="175.61769"
         style="font-style:normal;font-variant:normal;font-weight:normal;font-stretch:normal;font-size:6.35000038px;font-family:Lato;-inkscape-font-specification:Lato;fill:#8e0091;fill-opacity:1;stroke-width:0.26458332">More text</tspan></text>
    <rect
       style="opacity:1;fill:#ffffff;fill-opacity:1;fill-rule:evenodd;stroke:none;stroke-width:0.17879175;stroke-linecap:round;stroke-linejoin:round;stroke-miterlimit:4;stroke-dasharray:none;stroke-dashoffset:0;stroke-opacity:1;filter:url(#filter1671-7)"
       id="rect1527-8"
       width="33.923363"
       height="20.221727"
       x="-36.538593"
       y="157.5623"
       transform="matrix(1,0,0,2.1968317,63.433849,-193.95804)" />
    <text
       xml:space="preserve"
       style="font-style:normal;font-weight:normal;font-size:10.58333302px;line-height:1.25;font-family:sans-serif;letter-spacing:0px;word-spacing:0px;fill:#000000;fill-opacity:1;stroke:none;stroke-width:0.26458332"
       x="29.455593"
       y="160.02361"
       id="text871-9-5"><tspan
         sodipodi:role="line"
         id="tspan869-2-2"
         x="29.455593"
         y="160.02361"
         style="font-style:normal;font-variant:normal;font-weight:normal;font-stretch:normal;font-size:6.35000038px;font-family:Lato;-inkscape-font-specification:Lato;stroke-width:0.26458332">Title</tspan></text>
    <text
       xml:space="preserve"
       style="font-style:normal;font-weight:normal;font-size:10.58333302px;line-height:1.25;font-family:sans-serif;letter-spacing:0px;word-spacing:0px;fill:#00b9ff;fill-opacity:1;stroke:none;stroke-width:0.26458332"
       x="29.455593"
       y="167.78255"
       id="text871-9-8-1"><tspan
         sodipodi:role="line"
         id="tspan869-2-3-99"
         x="29.455593"
         y="167.78255"
         style="font-style:normal;font-variant:normal;font-weight:normal;font-stretch:normal;font-size:6.35000038px;font-family:Lato;-inkscape-font-specification:Lato;fill:#00b9ff;fill-opacity:1;stroke-width:0.26458332">Some text</tspan></text>
  </g>
</svg>
